[
  {
    "id": "0001",
    "bg": "assets/images/home/mercuryBg.png",
    "fg": "assets/images/planets/mercury.png",
    "name": "Mercury",
    "distance": "About 36 million miles, slightly more than 1/3 as far as the Earth",
    "description": "Sun-scorched Mercury, the smallest planet in our solar system, is only slightly larger than Earth's moon. Like the moon, Mercury has very little atmosphere to stop impacts and it is covered with craters. Mercury's dayside is super-heated by the sun, but at night temperatures drop hundreds of degrees below freezing. Ice may even exist in craters.",
    "from_sun": "About 36 million miles, slightly more than 1/3 as far as the Earth",
    "year": "About 88 Earth days",
    "days": "About 59 Earth days",
    "diameter": "About 3,000, less than half of Earth's",
    "temperatures": "279 degrees Fahrenheit on the side away from the sun; 801 degrees Fahrenheit on the side facing the sun",
    "source": "Nasa"
  },
  {
    "id": "0002",
    "bg": "assets/images/home/venusBg.png",
    "fg": "assets/images/planets/venus.png",
    "name": "Venus",
    "distance": "About 67 million miles, about 3/4 as far as the Earth is from the sun",
    "description": "Venus is a dim world of intense heat and volcanic activity. Similar in structure and size to Earth, Venus' thick, toxic atmosphere traps heat in a runaway 'greenhouse effect.' The scorched world has temperatures hot enough to melt lead. Glimpses below the clouds reveal volcanoes and deformed mountains. Venus spins slowly in the opposite direction of most planets.",
    "from_sun": "bout 67 million miles, about 3/4 as far as the Earth is from the sun.",
    "year": "About 225 Earth days",
    "days": "About 243 Earth days",
    "diameter": "About 7,500 miles, almost as large as Earth",
    "temperatures": "864 degress Fahrenheit",
    "source": "Nasa"
  },
  {
    "id": "0003",
    "bg": "assets/images/home/earthBg.png",
    "fg": "assets/images/planets/earth.png",
    "name": "Earth",
    "distance": "-",
    "description": "Earth, our home, is the third planet from the sun. It's the only planet known to have an atmosphere containing free oxygen, oceans of water on its surface and, of course, life.Earth is the fifth largest of the planets in the solar system. It's smaller than the four gas giants — Jupiter, Saturn, Uranus and Neptune — but larger than the three other rocky planets, Mercury, Mars and Venus.Earth has a diameter of roughly 8,000 miles (13,000 kilometers) and is round because gravity pulls matter into a ball. But, it's not perfectly round. Earth is really an 'oblate spheroid,' because its spin causes it to be squashed at its poles and swollen at the equator.",
    "from_sun": "151.64 million km",
    "year": "365 Earth days",
    "days": "23.925 hours",
    "diameter": "12,756 km",
    "temperatures": "58.62 F",
    "source": "-"
  },
  {
    "id": "0004",
    "bg": "assets/images/home/marsBg.png",
    "fg": "assets/images/planets/mars.png",
    "name": "Mars",
    "distance": "-",
    "description": "-",
    "from_sun": "",
    "year": "",
    "days": "",
    "diameter": "",
    "temperatures": "",
    "source": "Nasa"
  },
  {
    "id": "0005",
    "bg": "assets/images/home/jupiterBg.png",
    "fg": "assets/images/planets/jupiter.png",
    "name": "Jupiter",
    "distance": "-",
    "description": "-",
    "from_sun": "",
    "year": "",
    "days": "",
    "diameter": "",
    "temperatures": "",
    "source": "Nasa"
  },
  {
    "id": "0006",
    "bg": "assets/images/home/saturnBg.png",
    "fg": "assets/images/planets/saturn.png",
    "name": "Saturn",
    "distance": "-",
    "description": "-",
    "from_sun": "",
    "year": "",
    "days": "",
    "diameter": "",
    "temperatures": "",
    "source": "Nasa"
  },
  {
    "id": "0004",
    "bg": "assets/images/home/uranusBg.png",
    "fg": "assets/images/planets/uranus.png",
    "name": "Uranus",
    "distance": "-",
    "description": "-",
    "from_sun": "",
    "year": "",
    "days": "",
    "diameter": "",
    "temperatures": "",
    "source": "Nasa"
  },
  {
    "id": "0004",
    "bg": "assets/images/home/neptuneBg.png",
    "fg": "assets/images/planets/neptune.png",
    "name": "Neptune",
    "distance": "-",
    "description": "-",
    "from_sun": "",
    "year": "",
    "days": "",
    "diameter": "",
    "temperatures": "",
    "source": "Nasa"
  }
]